<?xml version="1.0" encoding="UTF-8" standalone="no"?>
<svg
   xmlns:dc="http://purl.org/dc/elements/1.1/"
   xmlns:cc="http://creativecommons.org/ns#"
   xmlns:rdf="http://www.w3.org/1999/02/22-rdf-syntax-ns#"
   xmlns:svg="http://www.w3.org/2000/svg"
   xmlns="http://www.w3.org/2000/svg"
   xmlns:sodipodi="http://sodipodi.sourceforge.net/DTD/sodipodi-0.dtd"
   xmlns:inkscape="http://www.inkscape.org/namespaces/inkscape"
   version="1.1"
   width="16.000002"
   height="16.000002"
   viewBox="0 0 16.000002 16.000002"
   id="svg176"
   sodipodi:docname="favicon.svg"
   inkscape:version="0.92.5 (2060ec1f9f, 2020-04-08)"
   inkscape:export-filename="/home/ana/Repos/manufactura/squarish/tile.png"
   inkscape:export-xdpi="3347.9995"
   inkscape:export-ydpi="3347.9995">
  <metadata
     id="metadata182">
    <rdf:RDF>
      <cc:Work
         rdf:about="">
        <dc:format>image/svg+xml</dc:format>
        <dc:type
           rdf:resource="http://purl.org/dc/dcmitype/StillImage" />
        <dc:title />
      </cc:Work>
    </rdf:RDF>
  </metadata>
  <defs
     id="defs180" />
  <sodipodi:namedview
     pagecolor="#ffffff"
     bordercolor="#666666"
     borderopacity="1"
     objecttolerance="10"
     gridtolerance="10"
     guidetolerance="10"
     inkscape:pageopacity="0"
     inkscape:pageshadow="2"
     inkscape:window-width="1680"
     inkscape:window-height="1010"
     id="namedview178"
     showgrid="true"
     fit-margin-top="0"
     fit-margin-left="0"
     fit-margin-right="0"
     fit-margin-bottom="0"
     inkscape:zoom="27.697764"
     inkscape:cx="15.306312"
     inkscape:cy="9.1944846"
     inkscape:current-layer="layer1"
     inkscape:window-x="1920"
     inkscape:window-y="20"
     inkscape:window-maximized="1">
    <inkscape:grid
       type="xygrid"
       id="grid5006"
       originx="-600"
       originy="1.0000005" />
  </sodipodi:namedview>
  <g
     stroke-miterlimit="10"
     font-weight="normal"
     font-size="12"
     style="font-weight:normal;font-size:12px;font-family:sans-serif;text-anchor:start;mix-blend-mode:normal;fill:none;fill-rule:nonzero;stroke:none;stroke-width:1;stroke-linecap:butt;stroke-linejoin:miter;stroke-miterlimit:10;stroke-dasharray:none;stroke-dashoffset:0"
     id="g2"
     transform="translate(-600,-585)" />
  <g
     stroke-miterlimit="10"
     font-weight="none"
     font-size="none"
     text-anchor="none"
     style="font-family:none;mix-blend-mode:normal;fill:none;fill-rule:nonzero;stroke:none;stroke-width:1;stroke-linecap:butt;stroke-linejoin:miter;stroke-miterlimit:10;stroke-dasharray:none;stroke-dashoffset:0"
     id="g6"
     transform="translate(-600,-585)">
    <rect
       x="0"
       y="0"
       width="1918"
       height="959"
       id="rect4" />
  </g>
  <g
     stroke-miterlimit="10"
     font-weight="normal"
     font-size="12"
     style="font-weight:normal;font-size:12px;font-family:sans-serif;text-anchor:start;mix-blend-mode:normal;fill:none;fill-rule:nonzero;stroke:none;stroke-width:1;stroke-linecap:butt;stroke-linejoin:miter;stroke-miterlimit:10;stroke-dasharray:none;stroke-dashoffset:0"
     id="g8"
     transform="translate(-600,-585)" />
  <rect
     style="font-family:none;mix-blend-mode:normal;fill:none;fill-rule:nonzero;stroke:none;stroke-width:1;stroke-linecap:butt;stroke-linejoin:miter;stroke-miterlimit:10;stroke-dasharray:none;stroke-dashoffset:0"
     id="rect15"
     stroke-miterlimit="10"
     height="100"
     width="100"
     y="0"
     x="0"
     transform="translate(-600,-585)" />
  <polygon
     style="font-family:none;mix-blend-mode:normal;fill:none;fill-rule:nonzero;stroke:none;stroke-width:1;stroke-linecap:butt;stroke-linejoin:miter;stroke-miterlimit:10;stroke-dasharray:none;stroke-dashoffset:0"
     id="polygon17"
     stroke-miterlimit="10"
     points="100,50 0,100 0,0 100,0 "
     transform="translate(-600,-585)" />
  <rect
     style="font-family:none;mix-blend-mode:normal;fill:none;fill-rule:nonzero;stroke:none;stroke-width:1;stroke-linecap:butt;stroke-linejoin:miter;stroke-miterlimit:10;stroke-dasharray:none;stroke-dashoffset:0"
     id="rect19"
     stroke-miterlimit="10"
     height="100"
     width="100"
     y="0"
     x="0"
     transform="translate(-600,-585)" />
  <polygon
     style="font-family:none;mix-blend-mode:normal;fill:none;fill-rule:nonzero;stroke:none;stroke-width:1;stroke-linecap:butt;stroke-linejoin:miter;stroke-miterlimit:10;stroke-dasharray:none;stroke-dashoffset:0"
     id="polygon21"
     stroke-miterlimit="10"
     points="0,0 100,0 0,50 "
     transform="translate(-600,-585)" />
  <rect
     style="font-family:none;mix-blend-mode:normal;fill:none;fill-rule:nonzero;stroke:none;stroke-width:1;stroke-linecap:butt;stroke-linejoin:miter;stroke-miterlimit:10;stroke-dasharray:none;stroke-dashoffset:0"
     id="rect23"
     stroke-miterlimit="10"
     height="100"
     width="100"
     y="0"
     x="0"
     transform="translate(-600,-585)" />
  <polygon
     style="font-family:none;mix-blend-mode:normal;fill:none;fill-rule:nonzero;stroke:none;stroke-width:1;stroke-linecap:butt;stroke-linejoin:miter;stroke-miterlimit:10;stroke-dasharray:none;stroke-dashoffset:0"
     id="polygon25"
     stroke-miterlimit="10"
     points="100,0 100,50 0,0 "
     transform="translate(-600,-585)" />
  <rect
     style="font-family:none;mix-blend-mode:normal;fill:none;fill-rule:nonzero;stroke:none;stroke-width:1;stroke-linecap:butt;stroke-linejoin:miter;stroke-miterlimit:10;stroke-dasharray:none;stroke-dashoffset:0"
     id="rect27"
     stroke-miterlimit="10"
     height="100"
     width="100"
     y="0"
     x="0"
     transform="translate(-600,-585)" />
  <polygon
     style="font-family:none;mix-blend-mode:normal;fill:none;fill-rule:nonzero;stroke:none;stroke-width:1;stroke-linecap:butt;stroke-linejoin:miter;stroke-miterlimit:10;stroke-dasharray:none;stroke-dashoffset:0"
     id="polygon29"
     stroke-miterlimit="10"
     points="100,100 0,50 0,0 100,0 "
     transform="translate(-600,-585)" />
  <rect
     style="font-family:none;mix-blend-mode:normal;fill:none;fill-rule:nonzero;stroke:none;stroke-width:1;stroke-linecap:butt;stroke-linejoin:miter;stroke-miterlimit:10;stroke-dasharray:none;stroke-dashoffset:0"
     id="rect31"
     stroke-miterlimit="10"
     height="100"
     width="100"
     y="0"
     x="0"
     transform="translate(-600,-585)" />
  <path
     style="font-family:none;mix-blend-mode:normal;fill:none;fill-rule:nonzero;stroke:none;stroke-width:1;stroke-linecap:butt;stroke-linejoin:miter;stroke-miterlimit:10;stroke-dasharray:none;stroke-dashoffset:0"
     inkscape:connector-curvature="0"
     id="path33"
     stroke-miterlimit="10"
     d=""
     transform="translate(-600,-585)" />
  <rect
     style="font-family:none;mix-blend-mode:normal;fill:none;fill-rule:nonzero;stroke:none;stroke-width:1;stroke-linecap:butt;stroke-linejoin:miter;stroke-miterlimit:10;stroke-dasharray:none;stroke-dashoffset:0"
     id="rect35"
     stroke-miterlimit="10"
     height="100"
     width="100"
     y="0"
     x="0"
     transform="translate(-600,-585)" />
  <path
     style="font-family:none;mix-blend-mode:normal;fill:none;fill-rule:nonzero;stroke:none;stroke-width:1;stroke-linecap:butt;stroke-linejoin:miter;stroke-miterlimit:10;stroke-dasharray:none;stroke-dashoffset:0"
     inkscape:connector-curvature="0"
     id="path37"
     stroke-miterlimit="10"
     d="M 0,0 H 100 V 100 H 50 C 22.38576,100 0,77.61424 0,50 Z"
     transform="translate(-600,-585)" />
  <rect
     style="font-family:none;mix-blend-mode:normal;fill:none;fill-rule:nonzero;stroke:none;stroke-width:1;stroke-linecap:butt;stroke-linejoin:miter;stroke-miterlimit:10;stroke-dasharray:none;stroke-dashoffset:0"
     id="rect39"
     stroke-miterlimit="10"
     height="100"
     width="100"
     y="0"
     x="0"
     transform="translate(-600,-585)" />
  <path
     style="font-family:none;mix-blend-mode:normal;fill:none;fill-rule:nonzero;stroke:none;stroke-width:1;stroke-linecap:butt;stroke-linejoin:miter;stroke-miterlimit:10;stroke-dasharray:none;stroke-dashoffset:0"
     inkscape:connector-curvature="0"
     id="path41"
     stroke-miterlimit="10"
     d="M 0,0 H 100 V 100 H 50 C 50,72.38576 27.61424,50 0,50 Z"
     transform="translate(-600,-585)" />
  <rect
     style="font-family:none;mix-blend-mode:normal;fill:none;fill-rule:nonzero;stroke:none;stroke-width:1;stroke-linecap:butt;stroke-linejoin:miter;stroke-miterlimit:10;stroke-dasharray:none;stroke-dashoffset:0"
     id="rect43"
     stroke-miterlimit="10"
     height="100"
     width="100"
     y="0"
     x="0"
     transform="translate(-600,-585)" />
  <path
     style="font-family:none;mix-blend-mode:normal;fill:none;fill-rule:nonzero;stroke:none;stroke-width:1;stroke-linecap:butt;stroke-linejoin:miter;stroke-miterlimit:10;stroke-dasharray:none;stroke-dashoffset:0"
     inkscape:connector-curvature="0"
     id="path45"
     stroke-miterlimit="10"
     d="M 100,0 V 100 C 100,44.77153 55.22847,0 0,0 Z"
     transform="translate(-600,-585)" />
  <rect
     style="font-family:none;mix-blend-mode:normal;fill:none;fill-rule:nonzero;stroke:none;stroke-width:1;stroke-linecap:butt;stroke-linejoin:miter;stroke-miterlimit:10;stroke-dasharray:none;stroke-dashoffset:0"
     id="rect47"
     stroke-miterlimit="10"
     height="100"
     width="100"
     y="0"
     x="0"
     transform="translate(-600,-585)" />
  <polygon
     style="font-family:none;mix-blend-mode:normal;fill:none;fill-rule:nonzero;stroke:none;stroke-width:1;stroke-linecap:butt;stroke-linejoin:miter;stroke-miterlimit:10;stroke-dasharray:none;stroke-dashoffset:0"
     id="polygon49"
     stroke-miterlimit="10"
     points="99.91495,0.04042 84.21795,0.04042 0,84.78123 0,0 100,0 100,100 15.69743,100 99.93765,15.76017 99.93765,0.06312 "
     transform="translate(-600,-585)" />
  <rect
     style="font-family:none;mix-blend-mode:normal;fill:none;fill-rule:nonzero;stroke:none;stroke-width:1;stroke-linecap:butt;stroke-linejoin:miter;stroke-miterlimit:10;stroke-dasharray:none;stroke-dashoffset:0"
     id="rect51"
     stroke-miterlimit="10"
     height="100"
     width="100"
     y="0"
     x="0"
     transform="translate(-600,-585)" />
  <path
     style="font-family:none;mix-blend-mode:normal;fill:none;fill-rule:nonzero;stroke:none;stroke-width:1;stroke-linecap:butt;stroke-linejoin:miter;stroke-miterlimit:10;stroke-dasharray:none;stroke-dashoffset:0"
     inkscape:connector-curvature="0"
     id="path53"
     stroke-miterlimit="10"
     d="M 0,0 H 50 L 0,50 Z M 100,100 H 50 l 50,-50 z"
     transform="translate(-600,-585)" />
  <rect
     style="font-family:none;mix-blend-mode:normal;fill:none;fill-rule:nonzero;stroke:none;stroke-width:1;stroke-linecap:butt;stroke-linejoin:miter;stroke-miterlimit:10;stroke-dasharray:none;stroke-dashoffset:0"
     id="rect55"
     stroke-miterlimit="10"
     height="100"
     width="100"
     y="0"
     x="0"
     transform="translate(-600,-585)" />
  <path
     style="font-family:none;mix-blend-mode:normal;fill:none;fill-rule:nonzero;stroke:none;stroke-width:1;stroke-linecap:butt;stroke-linejoin:miter;stroke-miterlimit:10;stroke-dasharray:none;stroke-dashoffset:0"
     inkscape:connector-curvature="0"
     id="path57"
     stroke-miterlimit="10"
     d="M 0,100 V 0 H 100 V 100 Z M 100,100 50,50 0,100"
     transform="translate(-600,-585)" />
  <rect
     style="font-family:none;mix-blend-mode:normal;fill:none;fill-rule:nonzero;stroke:none;stroke-width:1;stroke-linecap:butt;stroke-linejoin:miter;stroke-miterlimit:10;stroke-dasharray:none;stroke-dashoffset:0"
     id="rect59"
     stroke-miterlimit="10"
     height="100"
     width="100"
     y="0"
     x="0"
     transform="translate(-600,-585)" />
  <path
     style="font-family:none;mix-blend-mode:normal;fill:none;fill-rule:nonzero;stroke:none;stroke-width:1;stroke-linecap:butt;stroke-linejoin:miter;stroke-miterlimit:10;stroke-dasharray:none;stroke-dashoffset:0"
     inkscape:connector-curvature="0"
     id="path61"
     stroke-miterlimit="10"
     d="M 0,100 V 65.73823 L 34.26135,99.45835 65.69602,100 Z M 0,0 H 100 V 100 H 65.69602 L 0,34.30398 Z"
     transform="translate(-600,-585)" />
  <rect
     style="font-family:none;mix-blend-mode:normal;fill:none;fill-rule:nonzero;stroke:none;stroke-width:1;stroke-linecap:butt;stroke-linejoin:miter;stroke-miterlimit:10;stroke-dasharray:none;stroke-dashoffset:0"
     id="rect63"
     stroke-miterlimit="10"
     height="100"
     width="100"
     y="0"
     x="0"
     transform="translate(-600,-585)" />
  <polygon
     style="font-family:none;mix-blend-mode:normal;fill:none;fill-rule:nonzero;stroke:none;stroke-width:1;stroke-linecap:butt;stroke-linejoin:miter;stroke-miterlimit:10;stroke-dasharray:none;stroke-dashoffset:0"
     id="polygon65"
     stroke-miterlimit="10"
     points="100,0 100,100 50,100 0,50 0,0 "
     transform="translate(-600,-585)" />
  <rect
     style="font-family:none;mix-blend-mode:normal;fill:none;fill-rule:nonzero;stroke:none;stroke-width:1;stroke-linecap:butt;stroke-linejoin:miter;stroke-miterlimit:10;stroke-dasharray:none;stroke-dashoffset:0"
     id="rect67"
     stroke-miterlimit="10"
     height="100"
     width="100"
     y="0"
     x="0"
     transform="translate(-600,-585)" />
  <polygon
     style="font-family:none;mix-blend-mode:normal;fill:none;fill-rule:nonzero;stroke:none;stroke-width:1;stroke-linecap:butt;stroke-linejoin:miter;stroke-miterlimit:10;stroke-dasharray:none;stroke-dashoffset:0"
     id="polygon69"
     stroke-miterlimit="10"
     points="100,0 100,100 0,0 "
     transform="translate(-600,-585)" />
  <rect
     style="font-family:none;mix-blend-mode:normal;fill:none;fill-rule:nonzero;stroke:none;stroke-width:1;stroke-linecap:butt;stroke-linejoin:miter;stroke-miterlimit:10;stroke-dasharray:none;stroke-dashoffset:0"
     id="rect71"
     stroke-miterlimit="10"
     height="100"
     width="100"
     y="0"
     x="0"
     transform="translate(-600,-585)" />
  <path
     style="font-family:none;mix-blend-mode:normal;fill:none;fill-rule:nonzero;stroke:none;stroke-width:1;stroke-linecap:butt;stroke-linejoin:miter;stroke-miterlimit:10;stroke-dasharray:none;stroke-dashoffset:0"
     inkscape:connector-curvature="0"
     id="path73"
     stroke-miterlimit="10"
     d="M 100,0 V 100 H 87.50195 c 0,-33.33333 0,-66.66667 0,-100 z M 12.49219,0 h 12.54492 c 0,33.33333 0,66.66667 0,100 H 12.49219 c 0,-33.33333 0,-66.66667 0,-100 z m 25.03906,0 h 12.49219 c 0,33.33333 0,66.66667 0,100 H 37.53125 c 0,-33.33333 0,-66.66667 0,-100 z m 24.98437,0 h 12.49219 c 0,33.33333 0,66.66667 0,100 H 62.51562 c 0,-33.33333 0,-66.66667 0,-100 z"
     transform="translate(-600,-585)" />
  <rect
     style="font-family:none;mix-blend-mode:normal;fill:none;fill-rule:nonzero;stroke:none;stroke-width:1;stroke-linecap:butt;stroke-linejoin:miter;stroke-miterlimit:10;stroke-dasharray:none;stroke-dashoffset:0"
     id="rect75"
     stroke-miterlimit="10"
     height="100"
     width="100"
     y="0"
     x="0"
     transform="translate(-600,-585)" />
  <path
     style="font-family:none;mix-blend-mode:normal;fill:none;fill-rule:nonzero;stroke:none;stroke-width:1;stroke-linecap:butt;stroke-linejoin:miter;stroke-miterlimit:10;stroke-dasharray:none;stroke-dashoffset:0"
     inkscape:connector-curvature="0"
     id="path77"
     stroke-miterlimit="10"
     d="M 100,0 V 100 H 75 V 0 Z M 24.99869,0 H 49.99935 V 100 H 24.99869 Z"
     transform="translate(-600,-585)" />
  <rect
     style="font-family:none;mix-blend-mode:normal;fill:none;fill-rule:nonzero;stroke:none;stroke-width:1;stroke-linecap:butt;stroke-linejoin:miter;stroke-miterlimit:10;stroke-dasharray:none;stroke-dashoffset:0"
     id="rect79"
     stroke-miterlimit="10"
     height="100"
     width="100"
     y="0"
     x="0"
     transform="translate(-600,-585)" />
  <rect
     style="font-family:none;mix-blend-mode:normal;fill:none;fill-rule:nonzero;stroke:none;stroke-width:1;stroke-linecap:butt;stroke-linejoin:miter;stroke-miterlimit:10;stroke-dasharray:none;stroke-dashoffset:0"
     id="rect81"
     stroke-miterlimit="10"
     height="100"
     width="50"
     transform="rotate(180,-300,-292.5)"
     y="-100"
     x="-100" />
  <rect
     style="font-family:none;mix-blend-mode:normal;fill:none;fill-rule:nonzero;stroke:none;stroke-width:1;stroke-linecap:butt;stroke-linejoin:miter;stroke-miterlimit:10;stroke-dasharray:none;stroke-dashoffset:0"
     id="rect83"
     stroke-miterlimit="10"
     height="100"
     width="100"
     y="0"
     x="0"
     transform="translate(-600,-585)" />
  <rect
     style="font-family:none;mix-blend-mode:normal;fill:none;fill-rule:nonzero;stroke:none;stroke-width:1;stroke-linecap:butt;stroke-linejoin:miter;stroke-miterlimit:10;stroke-dasharray:none;stroke-dashoffset:0"
     id="rect85"
     stroke-miterlimit="10"
     height="100"
     width="100"
     y="0"
     x="0"
     transform="translate(-600,-585)" />
  <path
     style="font-family:none;mix-blend-mode:normal;fill:none;fill-rule:nonzero;stroke:none;stroke-width:1;stroke-linecap:butt;stroke-linejoin:miter;stroke-miterlimit:10;stroke-dasharray:none;stroke-dashoffset:0"
     inkscape:connector-curvature="0"
     id="path87"
     stroke-miterlimit="10"
     d="M 0,100 V 61.18896 L 38.80907,100 Z M 0,0 H 100 V 100 H 61.01845 L 0,38.90287 Z"
     transform="translate(-600,-585)" />
  <rect
     style="font-family:none;mix-blend-mode:normal;fill:none;fill-rule:nonzero;stroke:none;stroke-width:1;stroke-linecap:butt;stroke-linejoin:miter;stroke-miterlimit:10;stroke-dasharray:none;stroke-dashoffset:0"
     id="rect89"
     stroke-miterlimit="10"
     height="100"
     width="100"
     y="0"
     x="0"
     transform="translate(-600,-585)" />
  <path
     style="font-family:none;mix-blend-mode:normal;fill:none;fill-rule:nonzero;stroke:none;stroke-width:1;stroke-linecap:butt;stroke-linejoin:miter;stroke-miterlimit:10;stroke-dasharray:none;stroke-dashoffset:0"
     inkscape:connector-curvature="0"
     id="path91"
     stroke-miterlimit="10"
     d="M 0,100 V 0 H 38.85713 V 100 Z M 100,0 V 100 H 61.14287 V 0 Z"
     transform="translate(-600,-585)" />
  <rect
     style="font-family:none;mix-blend-mode:normal;fill:none;fill-rule:nonzero;stroke:none;stroke-width:1;stroke-linecap:butt;stroke-linejoin:miter;stroke-miterlimit:10;stroke-dasharray:none;stroke-dashoffset:0"
     id="rect93"
     stroke-miterlimit="10"
     height="100"
     width="100"
     y="0"
     x="0"
     transform="translate(-600,-585)" />
  <path
     style="font-family:none;mix-blend-mode:normal;fill:none;fill-rule:nonzero;stroke:none;stroke-width:1;stroke-linecap:butt;stroke-linejoin:miter;stroke-miterlimit:10;stroke-dasharray:none;stroke-dashoffset:0"
     inkscape:connector-curvature="0"
     id="path95"
     stroke-miterlimit="10"
     d="M 0,100 V 0 H 38.98246 V 100 Z M 100,0 V 38.92406 L 61.19106,38.86166 V 0 Z m 0,100 H 61.19106 V 61.15389 H 100 Z"
     transform="translate(-600,-585)" />
  <rect
     style="font-family:none;mix-blend-mode:normal;fill:none;fill-rule:nonzero;stroke:none;stroke-width:1;stroke-linecap:butt;stroke-linejoin:miter;stroke-miterlimit:10;stroke-dasharray:none;stroke-dashoffset:0"
     id="rect97"
     stroke-miterlimit="10"
     height="100"
     width="100"
     y="0"
     x="0"
     transform="translate(-600,-585)" />
  <path
     style="font-family:none;mix-blend-mode:normal;fill:none;fill-rule:nonzero;stroke:none;stroke-width:1;stroke-linecap:butt;stroke-linejoin:miter;stroke-miterlimit:10;stroke-dasharray:none;stroke-dashoffset:0"
     inkscape:connector-curvature="0"
     id="path99"
     stroke-miterlimit="10"
     d="M 0,100 V 61.07734 l 38.84718,0.0302 V 100 Z M 0,0 H 100 V 100 H 61.07461 l 0.0313,-38.87684 38.89406,0.0302 V 38.8456 H 61.12141 L 61.15271,0 38.84718,0.00213 v 38.8456 H 0 Z"
     transform="translate(-600,-585)" />
  <rect
     style="font-family:none;mix-blend-mode:normal;fill:none;fill-rule:nonzero;stroke:none;stroke-width:1;stroke-linecap:butt;stroke-linejoin:miter;stroke-miterlimit:10;stroke-dasharray:none;stroke-dashoffset:0"
     id="rect101"
     stroke-miterlimit="10"
     height="100"
     width="100"
     y="0"
     x="0"
     transform="translate(-600,-585)" />
  <path
     style="font-family:none;mix-blend-mode:normal;fill:none;fill-rule:nonzero;stroke:none;stroke-width:1;stroke-linecap:butt;stroke-linejoin:miter;stroke-miterlimit:10;stroke-dasharray:none;stroke-dashoffset:0"
     inkscape:connector-curvature="0"
     id="path103"
     stroke-miterlimit="10"
     d="M 0,100 V 0 H 100 V 100 Z M 50,32.57164 c -9.62542,0 -17.42836,7.80294 -17.42836,17.42836 0,9.62542 7.80294,17.42836 17.42836,17.42836 9.62542,0 17.42836,-7.80294 17.42836,-17.42836 0,-9.62542 -7.80294,-17.42836 -17.42836,-17.42836 z"
     transform="translate(-600,-585)" />
  <rect
     style="font-family:none;mix-blend-mode:normal;fill:none;fill-rule:nonzero;stroke:none;stroke-width:1;stroke-linecap:butt;stroke-linejoin:miter;stroke-miterlimit:10;stroke-dasharray:none;stroke-dashoffset:0"
     id="rect105"
     stroke-miterlimit="10"
     height="100"
     width="100"
     y="0"
     x="0"
     transform="translate(-600,-585)" />
  <path
     style="font-family:none;mix-blend-mode:normal;fill:none;fill-rule:nonzero;stroke:none;stroke-width:1;stroke-linecap:butt;stroke-linejoin:miter;stroke-miterlimit:10;stroke-dasharray:none;stroke-dashoffset:0"
     inkscape:connector-curvature="0"
     id="path107"
     stroke-miterlimit="10"
     d="M 0,100 V 0 H 100 V 100 Z M 32.57175,67.42828 h 34.8565 v -34.8565 h -34.8565 z"
     transform="translate(-600,-585)" />
  <rect
     style="font-family:none;mix-blend-mode:normal;fill:none;fill-rule:nonzero;stroke:none;stroke-width:1;stroke-linecap:butt;stroke-linejoin:miter;stroke-miterlimit:10;stroke-dasharray:none;stroke-dashoffset:0"
     id="rect109"
     stroke-miterlimit="10"
     height="100"
     width="100"
     y="0"
     x="0"
     transform="translate(-600,-585)" />
  <path
     style="font-family:none;mix-blend-mode:normal;fill:none;fill-rule:nonzero;stroke:none;stroke-width:1;stroke-linecap:butt;stroke-linejoin:miter;stroke-miterlimit:10;stroke-dasharray:none;stroke-dashoffset:0"
     inkscape:connector-curvature="0"
     id="path111"
     stroke-miterlimit="10"
     d="M 0,100 V 0 H 100 V 100 Z M 50,0 0,50 50,100 100,50 Z"
     transform="translate(-600,-585)" />
  <rect
     style="font-family:none;mix-blend-mode:normal;fill:none;fill-rule:nonzero;stroke:none;stroke-width:1;stroke-linecap:butt;stroke-linejoin:miter;stroke-miterlimit:10;stroke-dasharray:none;stroke-dashoffset:0"
     id="rect113"
     stroke-miterlimit="10"
     height="100"
     width="100"
     y="0"
     x="0"
     transform="translate(-600,-585)" />
  <path
     style="font-family:none;mix-blend-mode:normal;fill:none;fill-rule:nonzero;stroke:none;stroke-width:1;stroke-linecap:butt;stroke-linejoin:miter;stroke-miterlimit:10;stroke-dasharray:none;stroke-dashoffset:0"
     inkscape:connector-curvature="0"
     id="path115"
     stroke-miterlimit="10"
     d=""
     transform="translate(-600,-585)" />
  <rect
     style="font-family:none;mix-blend-mode:normal;fill:none;fill-rule:nonzero;stroke:none;stroke-width:1;stroke-linecap:butt;stroke-linejoin:miter;stroke-miterlimit:10;stroke-dasharray:none;stroke-dashoffset:0"
     id="rect117"
     stroke-miterlimit="10"
     height="100"
     width="100"
     y="0"
     x="0"
     transform="translate(-600,-585)" />
  <path
     style="font-family:none;mix-blend-mode:normal;fill:none;fill-rule:nonzero;stroke:none;stroke-width:1;stroke-linecap:butt;stroke-linejoin:miter;stroke-miterlimit:10;stroke-dasharray:none;stroke-dashoffset:0"
     inkscape:connector-curvature="0"
     id="path119"
     stroke-miterlimit="10"
     d="M 0,0 H 100 V 100 C 100,72.38576 77.61424,50 50,50 22.38576,50 0,72.38576 0,100 Z"
     transform="translate(-600,-585)" />
  <rect
     style="font-family:none;mix-blend-mode:normal;fill:none;fill-rule:nonzero;stroke:none;stroke-width:1;stroke-linecap:butt;stroke-linejoin:miter;stroke-miterlimit:10;stroke-dasharray:none;stroke-dashoffset:0"
     id="rect121"
     stroke-miterlimit="10"
     height="100"
     width="100"
     y="0"
     x="0"
     transform="translate(-600,-585)" />
  <path
     style="font-family:none;mix-blend-mode:normal;fill:none;fill-rule:nonzero;stroke:none;stroke-width:1;stroke-linecap:butt;stroke-linejoin:miter;stroke-miterlimit:10;stroke-dasharray:none;stroke-dashoffset:0"
     inkscape:connector-curvature="0"
     id="path123"
     stroke-miterlimit="10"
     d="M 0,0 H 100 V 50 C 100,22.38576 77.61424,0 50,0 22.38576,0 0,22.38576 0,50 Z"
     transform="translate(-600,-585)" />
  <rect
     style="font-family:none;mix-blend-mode:normal;fill:none;fill-rule:nonzero;stroke:none;stroke-width:1;stroke-linecap:butt;stroke-linejoin:miter;stroke-miterlimit:10;stroke-dasharray:none;stroke-dashoffset:0"
     id="rect125"
     stroke-miterlimit="10"
     height="100"
     width="100"
     y="0"
     x="0"
     transform="translate(-600,-585)" />
  <path
     style="font-family:none;mix-blend-mode:normal;fill:none;fill-rule:nonzero;stroke:none;stroke-width:1;stroke-linecap:butt;stroke-linejoin:miter;stroke-miterlimit:10;stroke-dasharray:none;stroke-dashoffset:0"
     inkscape:connector-curvature="0"
     id="path127"
     stroke-miterlimit="10"
     d="M 0,100 V 0 h 38.98446 l -0.0624,61.01754 H 100 V 100 Z M 100,0 V 38.80894 H 61.21429 V 0 Z"
     transform="translate(-600,-585)" />
  <rect
     style="font-family:none;mix-blend-mode:normal;fill:none;fill-rule:nonzero;stroke:none;stroke-width:1;stroke-linecap:butt;stroke-linejoin:miter;stroke-miterlimit:10;stroke-dasharray:none;stroke-dashoffset:0"
     id="rect129"
     stroke-miterlimit="10"
     height="100"
     width="100"
     y="0"
     x="0"
     transform="translate(-600,-585)" />
  <rect
     style="font-family:none;mix-blend-mode:normal;fill:none;fill-rule:nonzero;stroke:none;stroke-width:1;stroke-linecap:butt;stroke-linejoin:miter;stroke-miterlimit:10;stroke-dasharray:none;stroke-dashoffset:0"
     id="rect131"
     stroke-miterlimit="10"
     height="50"
     width="50"
     transform="rotate(180,-300,-292.5)"
     y="-50"
     x="-100" />
  <rect
     style="font-family:none;mix-blend-mode:normal;fill:none;fill-rule:nonzero;stroke:none;stroke-width:1;stroke-linecap:butt;stroke-linejoin:miter;stroke-miterlimit:10;stroke-dasharray:none;stroke-dashoffset:0"
     id="rect133"
     stroke-miterlimit="10"
     height="100"
     width="100"
     y="0"
     x="0"
     transform="translate(-600,-585)" />
  <path
     style="font-family:none;mix-blend-mode:normal;fill:none;fill-rule:nonzero;stroke:none;stroke-width:1;stroke-linecap:butt;stroke-linejoin:miter;stroke-miterlimit:10;stroke-dasharray:none;stroke-dashoffset:0"
     inkscape:connector-curvature="0"
     id="path135"
     stroke-miterlimit="10"
     d="M 0,100 V 61.12695 c 21.59404,0.005 38.86002,17.27136 38.86523,38.86524 V 100 Z M 0,0 H 100 V 100 H 61.10742 V 99.9863 C 61.09942,66.3758 33.6162,38.89326 0.00586,38.88474 v 3e-5 L 0,61.12695 Z"
     transform="translate(-600,-585)" />
  <g
     stroke-miterlimit="10"
     font-weight="normal"
     font-size="12"
     style="font-weight:normal;font-size:12px;font-family:sans-serif;text-anchor:start;mix-blend-mode:normal;fill:none;fill-rule:nonzero;stroke:none;stroke-width:1;stroke-linecap:butt;stroke-linejoin:miter;stroke-miterlimit:10;stroke-dasharray:none;stroke-dashoffset:0"
     id="g174"
     transform="translate(-600,-585)" />
  <g
     inkscape:groupmode="layer"
     id="layer1"
     inkscape:label="desenho"
     transform="translate(-600,-585)">
    <path
       style="font-family:none;mix-blend-mode:normal;fill:#ff7777;fill-rule:nonzero;stroke:none;stroke-width:0.07697994;stroke-linecap:round;stroke-linejoin:round;stroke-miterlimit:4;stroke-dasharray:none;stroke-dashoffset:0;font-variant-east_asian:normal;opacity:1;vector-effect:none;fill-opacity:1;stroke-opacity:1"
       d="m 604,584 v 4 4 4 4 h 4 4 4 4 v -4 -4 -4 -4 h -4 -4 -4 z"
       id="rect38 1"
       inkscape:connector-curvature="0"
       transform="matrix(0.75000022,0,0,0.75000022,148.99986,148.99987)" />
    <path
       style="font-family:none;opacity:1;mix-blend-mode:normal;vector-effect:none;fill:#f1f2da;fill-opacity:1;fill-rule:nonzero;stroke:none;stroke-width:0.09609694;stroke-linecap:square;stroke-linejoin:miter;stroke-miterlimit:4;stroke-dasharray:none;stroke-dashoffset:0;stroke-opacity:1"
       d="m 616,590 v 2 h 4 4 v -2 h -4 z"
       id="rect11860 1"
       inkscape:connector-curvature="0"
       transform="matrix(0.74999989,0,0,0.5,148.00007,295)" />
    <path
       transform="matrix(0.75000018,0,0,0.5,137.99989,299)"
       inkscape:connector-curvature="0"
       id="path5057"
       d="m 616,590 v 2 h 4 4 v -2 h -4 z"
       style="font-family:none;opacity:1;mix-blend-mode:normal;vector-effect:none;fill:#f1f2da;fill-opacity:1;fill-rule:nonzero;stroke:none;stroke-width:0.09609693;stroke-linecap:square;stroke-linejoin:miter;stroke-miterlimit:4;stroke-dasharray:none;stroke-dashoffset:0;stroke-opacity:1" />
    <rect
       style="opacity:1;vector-effect:none;fill:#f0f3f8;fill-opacity:1;stroke:none;stroke-width:1.0666666;stroke-linecap:butt;stroke-linejoin:miter;stroke-miterlimit:4;stroke-dasharray:none;stroke-dashoffset:0;stroke-opacity:1;marker:none;paint-order:normal"
       id="rect1003"
       width="2.9928958"
       height="2.4669294"
       x="1.3751143"
       y="-0.99999857"
       transform="translate(598.65329,581)" />
    <rect
       transform="translate(601.64619,581)"
       y="-0.99999857"
       x="1.3751143"
       height="2.4669294"
       width="2.9928958"
       id="rect1005"
       style="opacity:1;vector-effect:none;fill:#b5bae5;fill-opacity:1;stroke:none;stroke-width:1.0666666;stroke-linecap:butt;stroke-linejoin:miter;stroke-miterlimit:4;stroke-dasharray:none;stroke-dashoffset:0;stroke-opacity:1;marker:none;paint-order:normal" />
    <rect
       style="opacity:1;vector-effect:none;fill:#8c94d6;fill-opacity:1;stroke:none;stroke-width:1.0666666;stroke-linecap:butt;stroke-linejoin:miter;stroke-miterlimit:4;stroke-dasharray:none;stroke-dashoffset:0;stroke-opacity:1;marker:none;paint-order:normal"
       id="rect1007"
       width="2.9928958"
       height="2.4669294"
       x="1.3751143"
       y="-0.99999857"
       transform="translate(604.63909,581)" />
    <rect
       transform="translate(607.63199,581)"
       y="-0.99999857"
       x="1.3751143"
       height="2.4669294"
       width="2.9928958"
       id="rect1009"
       style="opacity:1;vector-effect:none;fill:#6b76cb;fill-opacity:1;stroke:none;stroke-width:1.0666666;stroke-linecap:butt;stroke-linejoin:miter;stroke-miterlimit:4;stroke-dasharray:none;stroke-dashoffset:0;stroke-opacity:1;marker:none;paint-order:normal" />
    <rect
       style="opacity:1;vector-effect:none;fill:#5964ba;fill-opacity:1;stroke:none;stroke-width:1.0666666;stroke-linecap:butt;stroke-linejoin:miter;stroke-miterlimit:4;stroke-dasharray:none;stroke-dashoffset:0;stroke-opacity:1;marker:none;paint-order:normal"
       id="rect1011"
       width="2.9928958"
       height="2.4669294"
       x="1.3751143"
       y="-0.99999857"
       transform="translate(610.62489,581)" />
  </g>
</svg>
